03-11 22:20:00 : Mode=Send, Header=29, Length=7C 
7C 00 00 42 C6 87 C4 29 00 00 00 06 00 30 2E 34
30 2E 38 3D 00 00 00 0D 00 41 6E 64 72 6F 69 64
5F 34 2E 34 2E 33 09 00 4F 50 50 4F 20 41 35 39
6D 10 00 33 30 38 30 30 32 37 30 30 39 43 39 35
30 30 30 0D 00 31 37 32 2E 31 36 2E 31 35 31 2E
31 35 00 00 00 00 20 00 37 39 34 37 45 34 45 42
32 38 33 34 31 44 32 36 43 37 32 35 41 39 34 41
42 34 39 38 46 34 41 44 17 00 00 00
03-11 22:20:00 : Mode=Recv, Header=2A, Length=14 
14 00 00 2A 00 00 00 00 00 00 00 00 01 00 00 00
17 00 00 00